{

;============================================================
;============================================================
; RC Action
;============================================================
;============================================================
Name      	"RC Action"


;====================
; Model Filenames
;====================

MODEL 	0 	"cars\rcact\body.prm"
MODEL 	1 	"cars\rcact\wheelfl.prm"
MODEL 	2 	"cars\rcact\wheelfr.prm"
MODEL 	3 	"cars\rcact\wheelrl.prm"
MODEL 	4 	"cars\rcact\wheelrr.prm"
MODEL 	5 	"cars\rcact\spring.prm"
MODEL 	6 	"NONE"
MODEL 	7 	"NONE"
MODEL 	8 	"NONE"
MODEL 	9 	"cars\rcact\axle.prm"
MODEL 	10 	"NONE"
MODEL 	11 	"NONE"
MODEL 	12 	"NONE"
MODEL 	13 	"NONE"
MODEL 	14 	"NONE"
MODEL 	15 	"NONE"
MODEL 	16 	"NONE"
MODEL 	17 	"cars\misc\Aerial.m"
MODEL 	18 	"cars\misc\AerialT.m"
TPAGE 	"cars\rcact\car.bmp"
;)TCARBOX "cars\rcact\carbox.bmp"
;)TSHADOW "cars\rcact\shadow.bmp"
;)SHADOWTABLE -43 43 48 -82 -5
COLL 	"cars\rcact\hull.hul"
EnvRGB 	255 255 255

;====================
; Stuff mainly for frontend display and car selectability
;====================

BestTime   	TRUE
Selectable 	TRUE
Class      	0 			; Engine type (0=Elec, 1=Glow, 2=Other)
Obtain     	0 			; Obtain method
Rating     	2			; Skill level (rookie, amateur, ...)
TopEnd     	3081.087646 			; Actual top speed (mph) for frontend bars
Acc        	6.007800 			; Acceleration rating (empirical)
Weight     	1.200000 			; Scaled weight (for frontend bars)
Handling   	50.000000 			; Handling ability (empirical and totally subjective)
Trans      	0 			; Transmission type (calculate in game anyway...)
MaxRevs    	0.500000 			; Max Revs (for rev counter)
;) Statistics   TRUE

;====================
; Handling related stuff
;====================

SteerRate  	2.500000 			; Rate at which steer angle approaches value from input
SteerMod   	0.400000 			;
EngineRate 	4.500000 			; Rate at which Engine voltage approaches set value
TopSpeed   	35.000000 			; Car's theoretical top speed (not including friction...)
DownForceMod	2.000000 			; Down force modifier when car on floor
CoM        	0.000000 -8.000000 -5.000000 		; Centre of mass relative to model centre
Weapon     	0.000000 -32.000000 64.000000 		; Weapon genration offset

;====================
; Car Body details
;====================

BODY {		; Start Body
ModelNum   	0 			; Model Number in above list
Offset     	0, 0, 0 		; Calculated in game
Mass       	1.200000
Inertia    	1180.000000 0.000000 0.000000
           	0.000000 1480.000000 0.000000
           	0.000000 0.000000 1200.000000
Gravity		2200 			; No longer used
Hardness   	0.000000
Resistance 	0.001000 			; Linear air esistance
AngRes     	0.001000 			; Angular air resistance
ResMod     	25.000000 			; Ang air resistnce scale when in air
Grip       	0.010000 			; Converts downforce to friction value
StaticFriction 0.800000
KineticFriction 0.400000
}     		; End Body

;====================
; Car Wheel details
;====================

WHEEL 0 { 	; Start Wheel
ModelNum 	1
Offset1  	-19.500000 5.000000 25.500000
Offset2  	-4.500000 0.000000 0.000000
IsPresent   	TRUE
IsPowered   	TRUE
IsTurnable  	TRUE
SteerRatio  	-0.500000
EngineRatio 	10000.000000
Radius      	11.800000
Mass        	0.450000
Gravity     	2200.000000
MaxPos      	10.000000
SkidWidth   	11.000000
ToeIn       	0.000000
AxleFriction    	0.020000
Grip            	0.015000
StaticFriction  	1.500000
KineticFriction 	1.390000
}          	; End Wheel

WHEEL 1 { 	; Start Wheel
ModelNum 	2
Offset1  	19.500000 5.000000 25.500000
Offset2  	4.500000 0.000000 0.000000
IsPresent   	TRUE
IsPowered   	TRUE
IsTurnable  	TRUE
SteerRatio  	-0.500000
EngineRatio 	10000.000000
Radius      	11.800000
Mass        	0.450000
Gravity     	2200.000000
MaxPos      	10.000000
SkidWidth   	11.000000
ToeIn       	0.000000
AxleFriction    	0.020000
Grip            	0.015000
StaticFriction  	1.500000
KineticFriction 	1.390000
}          	; End Wheel

WHEEL 2 { 	; Start Wheel
ModelNum 	3
Offset1  	-24.500000 4.500000 -38.000000
Offset2  	-4.500000 0.000000 0.000000
IsPresent   	TRUE
IsPowered   	TRUE
IsTurnable  	FALSE
SteerRatio  	0.100000
EngineRatio 	10000.000000
Radius      	12.200000
Mass        	0.450000
Gravity     	2200.000000
MaxPos      	10.000000
SkidWidth   	11.000000
ToeIn       	0.000000
AxleFriction    	0.050000
Grip            	0.015000
StaticFriction  	1.500000
KineticFriction 	1.410000
}          	; End Wheel

WHEEL 3 { 	; Start Wheel
ModelNum 	4
Offset1  	24.500000 4.500000 -38.000000
Offset2  	4.500000 0.000000 0.000000
IsPresent   	TRUE
IsPowered   	TRUE
IsTurnable  	FALSE
SteerRatio  	0.100000
EngineRatio 	10000.000000
Radius      	12.200000
Mass        	0.450000
Gravity     	2200.000000
MaxPos      	10.000000
SkidWidth   	11.000000
ToeIn       	0.000000
AxleFriction    	0.050000
Grip            	0.015000
StaticFriction  	1.500000
KineticFriction 	1.410000
}          	; End Wheel


;====================
; Car Spring details
;====================

SPRING 0 { 	; Start Spring
ModelNum    	5
Offset      	-13.750000 -6.500000 24.750000
Length      	15.000000
Stiffness   	380.000000
Damping     	9.000000
Restitution 	-1.000000
}           	; End Spring

SPRING 1 { 	; Start Spring
ModelNum    	5
Offset      	13.750000 -6.500000 24.750000
Length      	15.000000
Stiffness   	380.000000
Damping     	9.000000
Restitution 	-1.000000
}           	; End Spring

SPRING 2 { 	; Start Spring
ModelNum    	5
Offset      	-13.500000 -6.750000 -37.500000
Length      	15.000000
Stiffness   	380.000000
Damping     	9.000000
Restitution 	-1.000000
}           	; End Spring

SPRING 3 { 	; Start Spring
ModelNum    	5
Offset      	13.500000 -6.750000 -37.500000
Length      	15.000000
Stiffness   	380.000000
Damping     	9.000000
Restitution 	-1.000000
}           	; End Spring


;====================
; Car Pin details
;====================

PIN 0 {    	; Start Pin
ModelNum    	-1
Offset      	0.000000 0.000000 0.000000
Length      	0.000000
}           	; End Pin

PIN 1 {    	; Start Pin
ModelNum    	-1
Offset      	0.000000 0.000000 0.000000
Length      	0.000000
}           	; End Pin

PIN 2 {    	; Start Pin
ModelNum    	-1
Offset      	0.000000 0.000000 0.000000
Length      	0.000000
}           	; End Pin

PIN 3 {    	; Start Pin
ModelNum    	-1
Offset      	0.000000 0.000000 0.000000
Length      	0.000000
}           	; End Pin


;====================
; Car axle details
;====================

AXLE 0 {   	; Start Axle
ModelNum    	9
Offset      	-5.000000 4.000000 25.000000
Length      	9.000000
}           	; End axle

AXLE 1 {   	; Start Axle
ModelNum    	9
Offset      	5.000000 4.000000 25.000000
Length      	9.000000
}           	; End axle

AXLE 2 {   	; Start Axle
ModelNum    	9
Offset      	-6.000000 4.000000 -37.500000
Length      	9.000000
}           	; End axle

AXLE 3 {   	; Start Axle
ModelNum    	9
Offset      	6.000000 4.000000 -37.500000
Length      	9.000000
}           	; End axle


;====================
; Car spinner details
;====================

SPINNER {   	; Start spinner
ModelNum    	-1
Offset      	0.000000 0.000000 0.000000
Axis        	0.000000 1.000000 0.000000
AngVel      	0.000000
}           	; End Spinner


;====================
; Car Aerial details
;====================

AERIAL {    	; Start Aerial
SecModelNum 	17
TopModelNum 	18
Offset      	0.000000  -14.000000 -36.000000
Direction   	0.000000 -1.000000 0.000000
Length      	20.000000
Stiffness   	2000.000000
Damping     	5.500000
}           	; End Aerial


;====================
; Car AI details
;====================

AI {        	 ;Start AI
UnderThresh 	5.000000
UnderRange  	1584.415039
UnderFront	 	401.940002
UnderRear   	321.519989
UnderMax    	0.283685
OverThresh  	1954.575073
OverRange   	1541.581543
OverMax     	1.000000
OverAccThresh  	131.029999
OverAccRange   	1928.010010
PickupBias     	16383
BlockBias      	16383
OvertakeBias   	16383
Suspension     	26213
Aggression     	0
}           	; End AI

}

3D8A0499